// Jest Snapshot v1, https://goo.gl/fbAQLP

exports[`should match carousel snapshot 1`] = `
<div
  className="carousel-item"
  data-testid="carousel-item-test"
  style={
    Object {
      "width": undefined,
    }
  }
/>
`;
