// Jest Snapshot v1, https://goo.gl/fbAQLP

exports[`should match Info snapshot 1`] = `
<div
  className="info"
  data-testid="info-test"
>
  <span
    className="info--location"
  >
    location
  </span>
  <table
    className="list"
  >
    <tbody>
      <tr>
        <th
          className="category"
        >
          Population:
        </th>
        <th>
          
        </th>
      </tr>
      <tr>
        <th
          className="category"
        >
          Cases:
        </th>
        <th>
          
        </th>
      </tr>
      <tr>
        <th
          className="category"
        >
          Deaths: 
        </th>
        <th>
          
        </th>
      </tr>
    </tbody>
  </table>
  <table
    className="list"
  >
    <thead>
      <tr>
        <th
          className="innerheading"
          colSpan="2"
        >
          Testing
        </th>
      </tr>
    </thead>
    <tbody>
      <tr>
        <th
          className="category"
        >
          Positive Tests:
        </th>
        <th />
      </tr>
      <tr>
        <th
          className="category"
        >
          Negative Tests:
        </th>
        <th />
      </tr>
      <tr>
        <th
          className="category"
        >
          Test Positivity Ratio:
        </th>
        <th>
          
        </th>
      </tr>
      <tr>
        <th
          className="category"
        >
          Contact Tracers:
        </th>
        <th>
          
        </th>
      </tr>
    </tbody>
  </table>
  <table
    className="list"
  >
    <thead>
      <tr>
        <th
          className="innerheading"
          colSpan="2"
        >
          Vaccinations
        </th>
      </tr>
    </thead>
    <tbody>
      <tr>
        <th
          className="category"
        >
          First Dose:
        </th>
        <th>
          
        </th>
      </tr>
      <tr>
        <th
          className="category"
        >
          Fully Vaccinated:
        </th>
        <th>
          
        </th>
      </tr>
      <tr>
        <th
          className="category"
        >
          Additional Dose:
        </th>
        <th>
          
        </th>
      </tr>
    </tbody>
  </table>
  <table
    className="list"
  >
    <thead>
      <tr>
        <th
          className="innerheading"
          colSpan="2"
        >
          Hospitalizations & Intensive Care Unit Hospitalizations
        </th>
      </tr>
    </thead>
    <tbody>
      <tr>
        <th
          className="category"
        >
          Hospitalizations:
        </th>
        <th>
          
        </th>
      </tr>
      <tr>
        <th
          className="category"
        >
          Intensive Care Unit Hospitalizations:
        </th>
        <th>
          
        </th>
      </tr>
    </tbody>
  </table>
</div>
`;
